Verilog/simulation/qsim/Verilog1.msim.vcd
$comment
	File created using the following command:
		vcd file Verilog1.msim.vcd -direction
$end
$date
	Wed Feb 28 14:51:26 2024
$end
$version
	ModelSim Version 2020.1
$end
$timescale
	1ps
$end

$scope module Verilog1_vlg_vec_tst $end
$var reg 8 ! A [7:0] $end
$var reg 8 " B [7:0] $end
$var reg 1 # Mult $end
$var reg 1 $ ON_OFF $end
$var reg 1 % SA $end
$var reg 1 & SB $end
$var reg 1 ' So $end
$var reg 1 ( Sub $end
$var reg 1 ) clk $end
$var wire 1 * OP [7] $end
$var wire 1 + OP [6] $end
$var wire 1 , OP [5] $end
$var wire 1 - OP [4] $end
$var wire 1 . OP [3] $end
$var wire 1 / OP [2] $end
$var wire 1 0 OP [1] $end
$var wire 1 1 OP [0] $end
$var wire 1 2 R [15] $end
$var wire 1 3 R [14] $end
$var wire 1 4 R [13] $end
$var wire 1 5 R [12] $end
$var wire 1 6 R [11] $end
$var wire 1 7 R [10] $end
$var wire 1 8 R [9] $end
$var wire 1 9 R [8] $end
$var wire 1 : R [7] $end
$var wire 1 ; R [6] $end
$var wire 1 < R [5] $end
$var wire 1 = R [4] $end
$var wire 1 > R [3] $end
$var wire 1 ? R [2] $end
$var wire 1 @ R [1] $end
$var wire 1 A R [0] $end
$var wire 1 B RA [7] $end
$var wire 1 C RA [6] $end
$var wire 1 D RA [5] $end
$var wire 1 E RA [4] $end
$var wire 1 F RA [3] $end
$var wire 1 G RA [2] $end
$var wire 1 H RA [1] $end
$var wire 1 I RA [0] $end
$var wire 1 J RB [7] $end
$var wire 1 K RB [6] $end
$var wire 1 L RB [5] $end
$var wire 1 M RB [4] $end
$var wire 1 N RB [3] $end
$var wire 1 O RB [2] $end
$var wire 1 P RB [1] $end
$var wire 1 Q RB [0] $end
$var wire 1 R SR $end
$var wire 1 S SSA $end
$var wire 1 T SSB $end

$scope module i1 $end
$var wire 1 U gnd $end
$var wire 1 V vcc $end
$var wire 1 W unknown $end
$var tri1 1 X devclrn $end
$var tri1 1 Y devpor $end
$var tri1 1 Z devoe $end
$var wire 1 [ Mult0|auto_generated|mac_out2~0 $end
$var wire 1 \ Mult0|auto_generated|mac_out2~1 $end
$var wire 1 ] R[0]~output_o $end
$var wire 1 ^ R[1]~output_o $end
$var wire 1 _ R[2]~output_o $end
$var wire 1 ` R[3]~output_o $end
$var wire 1 a R[4]~output_o $end
$var wire 1 b R[5]~output_o $end
$var wire 1 c R[6]~output_o $end
$var wire 1 d R[7]~output_o $end
$var wire 1 e R[8]~output_o $end
$var wire 1 f R[9]~output_o $end
$var wire 1 g R[10]~output_o $end
$var wire 1 h R[11]~output_o $end
$var wire 1 i R[12]~output_o $end
$var wire 1 j R[13]~output_o $end
$var wire 1 k R[14]~output_o $end
$var wire 1 l R[15]~output_o $end
$var wire 1 m SR~output_o $end
$var wire 1 n SSA~output_o $end
$var wire 1 o RA[0]~output_o $end
$var wire 1 p RA[1]~output_o $end
$var wire 1 q RA[2]~output_o $end
$var wire 1 r RA[3]~output_o $end
$var wire 1 s RA[4]~output_o $end
$var wire 1 t RA[5]~output_o $end
$var wire 1 u RA[6]~output_o $end
$var wire 1 v RA[7]~output_o $end
$var wire 1 w SSB~output_o $end
$var wire 1 x RB[0]~output_o $end
$var wire 1 y RB[1]~output_o $end
$var wire 1 z RB[2]~output_o $end
$var wire 1 { RB[3]~output_o $end
$var wire 1 | RB[4]~output_o $end
$var wire 1 } RB[5]~output_o $end
$var wire 1 ~ RB[6]~output_o $end
$var wire 1 !! RB[7]~output_o $end
$var wire 1 "! OP[0]~output_o $end
$var wire 1 #! OP[1]~output_o $end
$var wire 1 $! OP[2]~output_o $end
$var wire 1 %! OP[3]~output_o $end
$var wire 1 &! OP[4]~output_o $end
$var wire 1 '! OP[5]~output_o $end
$var wire 1 (! OP[6]~output_o $end
$var wire 1 )! OP[7]~output_o $end
$var wire 1 *! clk~input_o $end
$var wire 1 +! clk~inputclkctrl_outclk $end
$var wire 1 ,! So~input_o $end
$var wire 1 -! ON_OFF~input_o $end
$var wire 1 .! Sub~input_o $end
$var wire 1 /! estado_atual~12_combout $end
$var wire 1 0! estado_atual.Desligado~0_combout $end
$var wire 1 1! estado_atual.Desligado~feeder_combout $end
$var wire 1 2! estado_atual.Desligado~q $end
$var wire 1 3! Mult~input_o $end
$var wire 1 4! estado_atual~16_combout $end
$var wire 1 5! estado_atual~17_combout $end
$var wire 1 6! estado_atual.Ligado~q $end
$var wire 1 7! estado_atual~11_combout $end
$var wire 1 8! estado_atual~18_combout $end
$var wire 1 9! estado_atual~19_combout $end
$var wire 1 :! estado_atual.OpSub~q $end
$var wire 1 ;! tempo[21]~1_combout $end
$var wire 1 <! tempo[21]~2_combout $end
$var wire 1 =! tempo[21]~3_combout $end
$var wire 1 >! tempo~34_combout $end
$var wire 1 ?! Add3~0_combout $end
$var wire 1 @! tempo~35_combout $end
$var wire 1 A! Add3~1 $end
$var wire 1 B! Add3~2_combout $end
$var wire 1 C! tempo~33_combout $end
$var wire 1 D! Add3~3 $end
$var wire 1 E! Add3~4_combout $end
$var wire 1 F! tempo~32_combout $end
$var wire 1 G! Add3~5 $end
$var wire 1 H! Add3~6_combout $end
$var wire 1 I! tempo~31_combout $end
$var wire 1 J! Add3~7 $end
$var wire 1 K! Add3~8_combout $end
$var wire 1 L! LessThan2~0_combout $end
$var wire 1 M! tempo~30_combout $end
$var wire 1 N! Add3~9 $end
$var wire 1 O! Add3~10_combout $end
$var wire 1 P! tempo~29_combout $end
$var wire 1 Q! Add3~11 $end
$var wire 1 R! Add3~12_combout $end
$var wire 1 S! tempo~27_combout $end
$var wire 1 T! Add3~13 $end
$var wire 1 U! Add3~14_combout $end
$var wire 1 V! tempo~28_combout $end
$var wire 1 W! Add3~15 $end
$var wire 1 X! Add3~16_combout $end
$var wire 1 Y! LessThan2~1_combout $end
$var wire 1 Z! tempo~21_combout $end
$var wire 1 [! Add3~17 $end
$var wire 1 \! Add3~18_combout $end
$var wire 1 ]! tempo~26_combout $end
$var wire 1 ^! Add3~19 $end
$var wire 1 _! Add3~20_combout $end
$var wire 1 `! tempo~25_combout $end
$var wire 1 a! Add3~21 $end
$var wire 1 b! Add3~22_combout $end
$var wire 1 c! tempo~24_combout $end
$var wire 1 d! Add3~23 $end
$var wire 1 e! Add3~24_combout $end
$var wire 1 f! tempo~23_combout $end
$var wire 1 g! Add3~25 $end
$var wire 1 h! Add3~26_combout $end
$var wire 1 i! tempo~22_combout $end
$var wire 1 j! Add3~27 $end
$var wire 1 k! Add3~28_combout $end
$var wire 1 l! tempo~20_combout $end
$var wire 1 m! Add3~29 $end
$var wire 1 n! Add3~30_combout $end
$var wire 1 o! tempo~19_combout $end
$var wire 1 p! Add3~31 $end
$var wire 1 q! Add3~32_combout $end
$var wire 1 r! LessThan2~3_combout $end
$var wire 1 s! LessThan2~2_combout $end
$var wire 1 t! LessThan2~4_combout $end
$var wire 1 u! tempo~4_combout $end
$var wire 1 v! Add3~33 $end
$var wire 1 w! Add3~34_combout $end
$var wire 1 x! tempo~18_combout $end
$var wire 1 y! Add3~35 $end
$var wire 1 z! Add3~36_combout $end
$var wire 1 {! tempo~17_combout $end
$var wire 1 |! Add3~37 $end
$var wire 1 }! Add3~38_combout $end
$var wire 1 ~! tempo~16_combout $end
$var wire 1 !" Add3~39 $end
$var wire 1 "" Add3~40_combout $end
$var wire 1 #" tempo~15_combout $end
$var wire 1 $" Add3~41 $end
$var wire 1 %" Add3~42_combout $end
$var wire 1 &" tempo~14_combout $end
$var wire 1 '" Add3~43 $end
$var wire 1 (" Add3~44_combout $end
$var wire 1 )" tempo~13_combout $end
$var wire 1 *" Add3~45 $end
$var wire 1 +" Add3~46_combout $end
$var wire 1 ," tempo~12_combout $end
$var wire 1 -" Add3~47 $end
$var wire 1 ." Add3~48_combout $end
$var wire 1 /" tempo~11_combout $end
$var wire 1 0" Add3~49 $end
$var wire 1 1" Add3~50_combout $end
$var wire 1 2" tempo~10_combout $end
$var wire 1 3" Add3~51 $end
$var wire 1 4" Add3~52_combout $end
$var wire 1 5" tempo~9_combout $end
$var wire 1 6" Add3~53 $end
$var wire 1 7" Add3~54_combout $end
$var wire 1 8" tempo~8_combout $end
$var wire 1 9" Add3~55 $end
$var wire 1 :" Add3~56_combout $end
$var wire 1 ;" tempo~7_combout $end
$var wire 1 <" Add3~57 $end
$var wire 1 =" Add3~58_combout $end
$var wire 1 >" tempo~6_combout $end
$var wire 1 ?" Add3~59 $end
$var wire 1 @" Add3~60_combout $end
$var wire 1 A" tempo~5_combout $end
$var wire 1 B" Add3~61 $end
$var wire 1 C" Add3~62_combout $end
$var wire 1 D" LessThan2~6_combout $end
$var wire 1 E" LessThan2~5_combout $end
$var wire 1 F" LessThan2~7_combout $end
$var wire 1 G" LessThan2~8_combout $end
$var wire 1 H" LessThan2~9_combout $end
$var wire 1 I" LessThan2~10_combout $end
$var wire 1 J" estado_atual~14_combout $end
$var wire 1 K" estado_atual~15_combout $end
$var wire 1 L" estado_atual.OpSoma~q $end
$var wire 1 M" SB~input_o $end
$var wire 1 N" SA~input_o $end
$var wire 1 O" A[7]~input_o $end
$var wire 1 P" B[7]~input_o $end
$var wire 1 Q" A[6]~input_o $end
$var wire 1 R" B[6]~input_o $end
$var wire 1 S" A[5]~input_o $end
$var wire 1 T" B[5]~input_o $end
$var wire 1 U" A[4]~input_o $end
$var wire 1 V" B[4]~input_o $end
$var wire 1 W" A[3]~input_o $end
$var wire 1 X" B[3]~input_o $end
$var wire 1 Y" A[2]~input_o $end
$var wire 1 Z" B[2]~input_o $end
$var wire 1 [" A[1]~input_o $end
$var wire 1 \" B[1]~input_o $end
$var wire 1 ]" B[0]~input_o $end
$var wire 1 ^" A[0]~input_o $end
$var wire 1 _" LessThan0~1_cout $end
$var wire 1 `" LessThan0~3_cout $end
$var wire 1 a" LessThan0~5_cout $end
$var wire 1 b" LessThan0~7_cout $end
$var wire 1 c" LessThan0~9_cout $end
$var wire 1 d" LessThan0~11_cout $end
$var wire 1 e" LessThan0~13_cout $end
$var wire 1 f" LessThan0~14_combout $end
$var wire 1 g" Selector52~5_combout $end
$var wire 1 h" Add2~0_combout $end
$var wire 1 i" always0~0_combout $end
$var wire 1 j" estado_atual~10_combout $end
$var wire 1 k" estado_atual~13_combout $end
$var wire 1 l" estado_atual.OpMult~q $end
$var wire 1 m" Selector52~2_combout $end
$var wire 1 n" Add1~0_combout $end
$var wire 1 o" Selector52~3_combout $end
$var wire 1 p" Mult0|auto_generated|mac_mult1~dataout $end
$var wire 1 q" Mult0|auto_generated|mac_mult1~DATAOUT1 $end
$var wire 1 r" Mult0|auto_generated|mac_mult1~DATAOUT2 $end
$var wire 1 s" Mult0|auto_generated|mac_mult1~DATAOUT3 $end
$var wire 1 t" Mult0|auto_generated|mac_mult1~DATAOUT4 $end
$var wire 1 u" Mult0|auto_generated|mac_mult1~DATAOUT5 $end
$var wire 1 v" Mult0|auto_generated|mac_mult1~DATAOUT6 $end
$var wire 1 w" Mult0|auto_generated|mac_mult1~DATAOUT7 $end
$var wire 1 x" Mult0|auto_generated|mac_mult1~DATAOUT8 $end
$var wire 1 y" Mult0|auto_generated|mac_mult1~DATAOUT9 $end
$var wire 1 z" Mult0|auto_generated|mac_mult1~DATAOUT10 $end
$var wire 1 {" Mult0|auto_generated|mac_mult1~DATAOUT11 $end
$var wire 1 |" Mult0|auto_generated|mac_mult1~DATAOUT12 $end
$var wire 1 }" Mult0|auto_generated|mac_mult1~DATAOUT13 $end
$var wire 1 ~" Mult0|auto_generated|mac_mult1~DATAOUT14 $end
$var wire 1 !# Mult0|auto_generated|mac_mult1~DATAOUT15 $end
$var wire 1 "# Mult0|auto_generated|mac_mult1~0 $end
$var wire 1 ## Mult0|auto_generated|mac_mult1~1 $end
$var wire 1 $# Mult0|auto_generated|mac_out2~dataout $end
$var wire 1 %# Add0~0_combout $end
$var wire 1 &# Selector52~4_combout $end
$var wire 1 '# LessThan1~1_cout $end
$var wire 1 (# LessThan1~3_cout $end
$var wire 1 )# LessThan1~5_cout $end
$var wire 1 *# LessThan1~7_cout $end
$var wire 1 +# LessThan1~9_cout $end
$var wire 1 ,# LessThan1~11_cout $end
$var wire 1 -# LessThan1~13_cout $end
$var wire 1 .# LessThan1~14_combout $end
$var wire 1 /# Selector53~2_combout $end
$var wire 1 0# Selector53~3_combout $end
$var wire 1 1# Selector53~3clkctrl_outclk $end
$var wire 1 2# R[0]$latch~combout $end
$var wire 1 3# Add0~1 $end
$var wire 1 4# Add0~2_combout $end
$var wire 1 5# Mult0|auto_generated|mac_out2~DATAOUT1 $end
$var wire 1 6# Add1~1 $end
$var wire 1 7# Add1~2_combout $end
$var wire 1 8# Selector14~0_combout $end
$var wire 1 9# Add2~1 $end
$var wire 1 :# Add2~2_combout $end
$var wire 1 ;# Selector14~1_combout $end
$var wire 1 <# R[1]$latch~combout $end
$var wire 1 =# Add0~3 $end
$var wire 1 ># Add0~4_combout $end
$var wire 1 ?# Mult0|auto_generated|mac_out2~DATAOUT2 $end
$var wire 1 @# Add2~3 $end
$var wire 1 A# Add2~4_combout $end
$var wire 1 B# Add1~3 $end
$var wire 1 C# Add1~4_combout $end
$var wire 1 D# Selector13~0_combout $end
$var wire 1 E# Selector13~1_combout $end
$var wire 1 F# R[2]$latch~combout $end
$var wire 1 G# Add0~5 $end
$var wire 1 H# Add0~6_combout $end
$var wire 1 I# Add2~5 $end
$var wire 1 J# Add2~6_combout $end
$var wire 1 K# Mult0|auto_generated|mac_out2~DATAOUT3 $end
$var wire 1 L# Add1~5 $end
$var wire 1 M# Add1~6_combout $end
$var wire 1 N# Selector12~0_combout $end
$var wire 1 O# Selector12~1_combout $end
$var wire 1 P# R[3]$latch~combout $end
$var wire 1 Q# Add1~7 $end
$var wire 1 R# Add1~8_combout $end
$var wire 1 S# Add2~7 $end
$var wire 1 T# Add2~8_combout $end
$var wire 1 U# Selector11~0_combout $end
$var wire 1 V# Mult0|auto_generated|mac_out2~DATAOUT4 $end
$var wire 1 W# Add0~7 $end
$var wire 1 X# Add0~8_combout $end
$var wire 1 Y# Selector11~1_combout $end
$var wire 1 Z# R[4]$latch~combout $end
$var wire 1 [# Add1~9 $end
$var wire 1 \# Add1~10_combout $end
$var wire 1 ]# Mult0|auto_generated|mac_out2~DATAOUT5 $end
$var wire 1 ^# Selector10~0_combout $end
$var wire 1 _# Add2~9 $end
$var wire 1 `# Add2~10_combout $end
$var wire 1 a# Add0~9 $end
$var wire 1 b# Add0~10_combout $end
$var wire 1 c# Selector10~1_combout $end
$var wire 1 d# R[5]$latch~combout $end
$var wire 1 e# Add2~11 $end
$var wire 1 f# Add2~12_combout $end
$var wire 1 g# Add1~11 $end
$var wire 1 h# Add1~12_combout $end
$var wire 1 i# Selector9~0_combout $end
$var wire 1 j# Add0~11 $end
$var wire 1 k# Add0~12_combout $end
$var wire 1 l# Mult0|auto_generated|mac_out2~DATAOUT6 $end
$var wire 1 m# Selector9~1_combout $end
$var wire 1 n# R[6]$latch~combout $end
$var wire 1 o# Add1~13 $end
$var wire 1 p# Add1~14_combout $end
$var wire 1 q# Mult0|auto_generated|mac_out2~DATAOUT7 $end
$var wire 1 r# Selector8~0_combout $end
$var wire 1 s# Add0~13 $end
$var wire 1 t# Add0~14_combout $end
$var wire 1 u# Add2~13 $end
$var wire 1 v# Add2~14_combout $end
$var wire 1 w# Selector8~1_combout $end
$var wire 1 x# R[7]$latch~combout $end
$var wire 1 y# Add0~15 $end
$var wire 1 z# Add0~16_combout $end
$var wire 1 {# Selector7~4_combout $end
$var wire 1 |# Add2~15 $end
$var wire 1 }# Add2~16_combout $end
$var wire 1 ~# Add1~15 $end
$var wire 1 !$ Add1~16_combout $end
$var wire 1 "$ R[15]~2_combout $end
$var wire 1 #$ Mult0|auto_generated|mac_out2~DATAOUT8 $end
$var wire 1 $$ Selector7~2_combout $end
$var wire 1 %$ Selector7~3_combout $end
$var wire 1 &$ R[8]$latch~combout $end
$var wire 1 '$ Selector6~1_combout $end
$var wire 1 ($ Mult0|auto_generated|mac_out2~DATAOUT9 $end
$var wire 1 )$ Selector6~0_combout $end
$var wire 1 *$ Selector6~2_combout $end
$var wire 1 +$ R[9]$latch~combout $end
$var wire 1 ,$ Mult0|auto_generated|mac_out2~DATAOUT10 $end
$var wire 1 -$ Selector5~0_combout $end
$var wire 1 .$ Selector5~1_combout $end
$var wire 1 /$ R[10]$latch~combout $end
$var wire 1 0$ Mult0|auto_generated|mac_out2~DATAOUT11 $end
$var wire 1 1$ Selector4~0_combout $end
$var wire 1 2$ Selector4~1_combout $end
$var wire 1 3$ R[11]$latch~combout $end
$var wire 1 4$ Mult0|auto_generated|mac_out2~DATAOUT12 $end
$var wire 1 5$ Selector3~0_combout $end
$var wire 1 6$ Selector3~1_combout $end
$var wire 1 7$ R[12]$latch~combout $end
$var wire 1 8$ Mult0|auto_generated|mac_out2~DATAOUT13 $end
$var wire 1 9$ Selector2~0_combout $end
$var wire 1 :$ Selector2~1_combout $end
$var wire 1 ;$ R[13]$latch~combout $end
$var wire 1 <$ Mult0|auto_generated|mac_out2~DATAOUT14 $end
$var wire 1 =$ Selector1~0_combout $end
$var wire 1 >$ Selector1~1_combout $end
$var wire 1 ?$ R[14]$latch~combout $end
$var wire 1 @$ Mult0|auto_generated|mac_out2~DATAOUT15 $end
$var wire 1 A$ Selector0~0_combout $end
$var wire 1 B$ Selector0~1_combout $end
$var wire 1 C$ R[15]$latch~combout $end
$var wire 1 D$ SR~0_combout $end
$var wire 1 E$ SR~1_combout $end
$var wire 1 F$ SR$latch~combout $end
$var wire 1 G$ estado_atual.OpSoma~clkctrl_outclk $end
$var wire 1 H$ SSA$latch~combout $end
$var wire 1 I$ estado_atual.Desligado~clkctrl_outclk $end
$var wire 1 J$ RA[0]$latch~combout $end
$var wire 1 K$ RA[1]$latch~combout $end
$var wire 1 L$ RA[2]$latch~combout $end
$var wire 1 M$ RA[3]$latch~combout $end
$var wire 1 N$ RA[4]$latch~combout $end
$var wire 1 O$ RA[5]$latch~combout $end
$var wire 1 P$ RA[6]$latch~combout $end
$var wire 1 Q$ RA[7]$latch~combout $end
$var wire 1 R$ SSB$latch~combout $end
$var wire 1 S$ RB[0]$latch~combout $end
$var wire 1 T$ RB[1]$latch~combout $end
$var wire 1 U$ RB[2]$latch~combout $end
$var wire 1 V$ RB[3]$latch~combout $end
$var wire 1 W$ RB[4]$latch~combout $end
$var wire 1 X$ RB[5]$latch~combout $end
$var wire 1 Y$ RB[6]$latch~combout $end
$var wire 1 Z$ RB[7]$latch~combout $end
$var wire 1 [$ tempo[21]~0_combout $end
$var wire 1 \$ tempo[21]~0clkctrl_outclk $end
$var wire 1 ]$ OP[0]$latch~combout $end
$var wire 1 ^$ OP~2_combout $end
$var wire 1 _$ OP[1]$latch~combout $end
$var wire 1 `$ OP[2]$latch~combout $end
$var wire 1 a$ OP[4]$latch~combout $end
$var wire 1 b$ tempo [31] $end
$var wire 1 c$ tempo [30] $end
$var wire 1 d$ tempo [29] $end
$var wire 1 e$ tempo [28] $end
$var wire 1 f$ tempo [27] $end
$var wire 1 g$ tempo [26] $end
$var wire 1 h$ tempo [25] $end
$var wire 1 i$ tempo [24] $end
$var wire 1 j$ tempo [23] $end
$var wire 1 k$ tempo [22] $end
$var wire 1 l$ tempo [21] $end
$var wire 1 m$ tempo [20] $end
$var wire 1 n$ tempo [19] $end
$var wire 1 o$ tempo [18] $end
$var wire 1 p$ tempo [17] $end
$var wire 1 q$ tempo [16] $end
$var wire 1 r$ tempo [15] $end
$var wire 1 s$ tempo [14] $end
$var wire 1 t$ tempo [13] $end
$var wire 1 u$ tempo [12] $end
$var wire 1 v$ tempo [11] $end
$var wire 1 w$ tempo [10] $end
$var wire 1 x$ tempo [9] $end
$var wire 1 y$ tempo [8] $end
$var wire 1 z$ tempo [7] $end
$var wire 1 {$ tempo [6] $end
$var wire 1 |$ tempo [5] $end
$var wire 1 }$ tempo [4] $end
$var wire 1 ~$ tempo [3] $end
$var wire 1 !% tempo [2] $end
$var wire 1 "% tempo [1] $end
$var wire 1 #% tempo [0] $end
$var wire 1 $% Mult0|auto_generated|mac_out2_DATAOUT_bus [17] $end
$var wire 1 %% Mult0|auto_generated|mac_out2_DATAOUT_bus [16] $end
$var wire 1 &% Mult0|auto_generated|mac_out2_DATAOUT_bus [15] $end
$var wire 1 '% Mult0|auto_generated|mac_out2_DATAOUT_bus [14] $end
$var wire 1 (% Mult0|auto_generated|mac_out2_DATAOUT_bus [13] $end
$var wire 1 )% Mult0|auto_generated|mac_out2_DATAOUT_bus [12] $end
$var wire 1 *% Mult0|auto_generated|mac_out2_DATAOUT_bus [11] $end
$var wire 1 +% Mult0|auto_generated|mac_out2_DATAOUT_bus [10] $end
$var wire 1 ,% Mult0|auto_generated|mac_out2_DATAOUT_bus [9] $end
$var wire 1 -% Mult0|auto_generated|mac_out2_DATAOUT_bus [8] $end
$var wire 1 .% Mult0|auto_generated|mac_out2_DATAOUT_bus [7] $end
$var wire 1 /% Mult0|auto_generated|mac_out2_DATAOUT_bus [6] $end
$var wire 1 0% Mult0|auto_generated|mac_out2_DATAOUT_bus [5] $end
$var wire 1 1% Mult0|auto_generated|mac_out2_DATAOUT_bus [4] $end
$var wire 1 2% Mult0|auto_generated|mac_out2_DATAOUT_bus [3] $end
$var wire 1 3% Mult0|auto_generated|mac_out2_DATAOUT_bus [2] $end
$var wire 1 4% Mult0|auto_generated|mac_out2_DATAOUT_bus [1] $end
$var wire 1 5% Mult0|auto_generated|mac_out2_DATAOUT_bus [0] $end
$var wire 1 6% Mult0|auto_generated|mac_mult1_DATAOUT_bus [17] $end
$var wire 1 7% Mult0|auto_generated|mac_mult1_DATAOUT_bus [16] $end
$var wire 1 8% Mult0|auto_generated|mac_mult1_DATAOUT_bus [15] $end
$var wire 1 9% Mult0|auto_generated|mac_mult1_DATAOUT_bus [14] $end
$var wire 1 :% Mult0|auto_generated|mac_mult1_DATAOUT_bus [13] $end
$var wire 1 ;% Mult0|auto_generated|mac_mult1_DATAOUT_bus [12] $end
$var wire 1 <% Mult0|auto_generated|mac_mult1_DATAOUT_bus [11] $end
$var wire 1 =% Mult0|auto_generated|mac_mult1_DATAOUT_bus [10] $end
$var wire 1 >% Mult0|auto_generated|mac_mult1_DATAOUT_bus [9] $end
$var wire 1 ?% Mult0|auto_generated|mac_mult1_DATAOUT_bus [8] $end
$var wire 1 @% Mult0|auto_generated|mac_mult1_DATAOUT_bus [7] $end
$var wire 1 A% Mult0|auto_generated|mac_mult1_DATAOUT_bus [6] $end
$var wire 1 B% Mult0|auto_generated|mac_mult1_DATAOUT_bus [5] $end
$var wire 1 C% Mult0|auto_generated|mac_mult1_DATAOUT_bus [4] $end
$var wire 1 D% Mult0|auto_generated|mac_mult1_DATAOUT_bus [3] $end
$var wire 1 E% Mult0|auto_generated|mac_mult1_DATAOUT_bus [2] $end
$var wire 1 F% Mult0|auto_generated|mac_mult1_DATAOUT_bus [1] $end
$var wire 1 G% Mult0|auto_generated|mac_mult1_DATAOUT_bus [0] $end
$upscope $end
$upscope $end
$enddefinitions $end
#0
$dumpvars
b1 !
b10 "
0#
1$
1%
0&
1'
0(
0)
x1
x0
x/
1.
x-
1,
x+
0*
xA
x@
x?
x>
x=
x<
x;
x:
x9
x8
x7
x6
x5
x4
x3
x2
xI
xH
xG
xF
xE
xD
xC
xB
xQ
xP
xO
xN
xM
xL
xK
xJ
xR
xS
xT
0U
1V
xW
1X
1Y
1Z
0[
0\
x]
x^
x_
x`
xa
xb
xc
xd
xe
xf
xg
xh
xi
xj
xk
xl
xm
xn
xo
xp
xq
xr
xs
xt
xu
xv
xw
xx
xy
xz
x{
x|
x}
x~
x!!
x"!
x#!
x$!
1%!
x&!
1'!
x(!
0)!
0*!
0+!
1,!
1-!
0.!
0/!
00!
01!
02!
03!
04!
05!
06!
07!
08!
09!
0:!
0;!
0<!
0=!
0>!
1?!
1@!
0A!
0B!
0C!
1D!
0E!
0F!
0G!
0H!
0I!
1J!
0K!
1L!
0M!
0N!
0O!
0P!
1Q!
0R!
0S!
0T!
0U!
0V!
1W!
0X!
1Y!
0Z!
0[!
0\!
0]!
1^!
0_!
0`!
0a!
0b!
0c!
1d!
0e!
0f!
0g!
0h!
0i!
1j!
0k!
0l!
0m!
0n!
0o!
1p!
0q!
1r!
1s!
1t!
0u!
0v!
0w!
0x!
1y!
0z!
0{!
0|!
0}!
0~!
1!"
0""
0#"
0$"
0%"
0&"
1'"
0("
0)"
0*"
0+"
0,"
1-"
0."
0/"
00"
01"
02"
13"
04"
05"
06"
07"
08"
19"
0:"
0;"
0<"
0="
0>"
1?"
0@"
0A"
0B"
0C"
1D"
1E"
1F"
1G"
1H"
1I"
0J"
0K"
0L"
0M"
1N"
0O"
0P"
0Q"
0R"
0S"
0T"
0U"
0V"
0W"
0X"
0Y"
0Z"
0["
1\"
0]"
1^"
1_"
1`"
0a"
1b"
0c"
1d"
0e"
0f"
0g"
1h"
1i"
0j"
0k"
0l"
0m"
1n"
1o"
0p"
1q"
0r"
0s"
0t"
0u"
0v"
0w"
0x"
0y"
0z"
0{"
0|"
0}"
0~"
0!#
0"#
0##
0$#
1%#
1&#
0'#
0(#
1)#
0*#
1+#
0,#
1-#
1.#
1/#
00#
01#
x2#
03#
14#
15#
16#
17#
18#
09#
0:#
1;#
x<#
1=#
0>#
0?#
0@#
0A#
1B#
1C#
1D#
1E#
xF#
0G#
0H#
1I#
0J#
0K#
0L#
1M#
1N#
1O#
xP#
1Q#
1R#
0S#
0T#
1U#
0V#
1W#
0X#
1Y#
xZ#
0[#
1\#
0]#
1^#
1_#
0`#
0a#
0b#
1c#
xd#
0e#
0f#
1g#
1h#
1i#
1j#
0k#
0l#
1m#
xn#
0o#
1p#
0q#
1r#
0s#
0t#
1u#
0v#
1w#
xx#
1y#
0z#
0{#
0|#
0}#
1~#
1!$
0"$
0#$
0$$
0%$
x&$
0'$
0($
0)$
0*$
x+$
0,$
0-$
0.$
x/$
00$
01$
02$
x3$
04$
05$
06$
x7$
08$
09$
0:$
x;$
0<$
0=$
0>$
x?$
0@$
0A$
0B$
xC$
0D$
0E$
xF$
0G$
xH$
0I$
xJ$
xK$
xL$
xM$
xN$
xO$
xP$
xQ$
xR$
xS$
xT$
xU$
xV$
xW$
xX$
xY$
xZ$
0[$
0\$
x]$
0^$
x_$
x`$
xa$
0#%
0"%
0!%
0~$
0}$
0|$
0{$
0z$
0y$
0x$
0w$
0v$
0u$
0t$
0s$
0r$
0q$
0p$
0o$
0n$
0m$
0l$
0k$
0j$
0i$
0h$
0g$
0f$
0e$
0d$
0c$
0b$
05%
04%
03%
12%
01%
00%
0/%
0.%
0-%
0,%
0+%
0*%
0)%
0(%
0'%
0&%
0%%
0$%
0G%
0F%
0E%
1D%
0C%
0B%
0A%
0@%
0?%
0>%
0=%
0<%
0;%
0:%
09%
08%
07%
06%
$end
#10000
1)
1*!
1+!
1#%
1A!
0?!
1B!
0@!
1>!
#20000
0)
0*!
0+!
#30000
1)
1*!
1+!
0#%
1"%
0A!
1?!
0D!
0B!
1D!
1B!
1E!
1@!
0>!
0E!
1>!
1C!
0C!
#40000
0)
0*!
0+!
#50000
1)
1*!
1+!
1#%
1A!
0?!
0D!
0B!
0@!
1E!
0>!
1C!
#60000
0)
0*!
0+!
#70000
1)
1*!
1+!
1!%
0#%
0"%
1G!
0E!
0A!
1?!
1D!
1B!
1H!
0B!
0G!
1E!
0C!
1@!
1>!
0L!
0H!
1F!
0>!
1C!
0t!
1L!
0F!
0I"
1t!
10!
1I"
0C!
0@!
15!
00!
11!
1C!
1@!
05!
01!
#80000
0)
0*!
0+!
#90000
1)
1*!
1+!
1#%
1A!
0?!
1B!
0@!
1>!
#100000
0)
0*!
0+!
#110000
1)
1*!
1+!
0#%
1"%
0A!
1?!
0D!
0B!
1D!
1B!
1G!
0E!
1@!
0>!
0G!
1E!
1H!
1>!
0C!
0H!
0L!
1C!
1F!
1L!
0t!
0F!
1t!
0I"
1I"
10!
0C!
0@!
0>!
15!
00!
1C!
1@!
1>!
05!
11!
01!
#120000
0)
0*!
0+!
#130000
1)
1*!
1+!
1#%
1A!
0?!
0D!
0B!
0@!
1G!
0E!
0>!
1H!
0C!
1F!
#140000
0)
0*!
0+!
#150000
1)
1*!
1+!
1~$
0!%
0#%
0"%
0J!
0H!
0G!
1E!
0A!
1?!
1D!
1B!
1K!
1J!
1H!
0B!
0E!
0F!
1C!
1@!
1>!
0L!
0K!
1I!
1F!
0>!
0C!
0t!
1L!
0I!
0I"
1t!
10!
1I"
0F!
0@!
15!
00!
11!
1F!
1@!
05!
01!
#160000
0)
0*!
0+!
#170000
1)
1*!
1+!
1#%
1A!
0?!
1B!
0@!
0L!
1>!
0t!
0I"
10!
0F!
0>!
15!
11!
#180000
0)
0*!
0+!
#190000
1)
1*!
1+!
16!
0~$
0#%
12!
1I$
17!
0H!
0A!
1?!
05!
0Z$
0Y$
0X$
0W$
0V$
0U$
1T$
0S$
0Q$
0P$
0O$
0N$
0M$
0L$
0K$
1J$
1o
0p
0q
0r
0s
0t
0u
0v
0x
1y
0z
0{
0|
0}
0~
0!!
1L!
0B!
0J
0K
0L
0M
0N
0O
1P
0Q
0B
0C
0D
0E
0F
0G
0H
1I
1K"
1t!
1I"
07!
1@!
15!
0K"
#200000
0)
0*!
0+!
#210000
1)
1*!
1+!
1#%
1A!
0?!
1B!
0@!
1>!
#220000
0)
0*!
0+!
#230000
1)
1*!
1+!
0#%
1"%
0A!
1?!
0D!
0B!
1D!
1B!
1E!
1@!
0>!
0E!
1>!
1C!
0C!
